{
    "AppSyncApiName": "cloudexp",
    "schemaGraphql": "s3://loudxp-20190301093459-deployment/amplify-appsync-files/schema.graphql.1551435023383",
    "ResolverBucket": "loudxp-20190301093459-deployment",
    "ResolverRootKey": "amplify-appsync-files",
    "DeploymentTimestamp": "1551435023383"
}